[
  {
    "name": "id",
    "dbType": "increments",
    "htmlType": "",
    "validations": "",
    "searchable": false,
    "fillable": false,
    "primary": true,
    "inForm": false,
    "inIndex": false
  },
  {
    "name": "name",
    "dbType": "string",
    "htmlType": "text",
    "validations": "",
    "searchable": true,
    "inForm": true,
    "inIndex": true
  },
  {
    "name": "name_fa",
    "dbType": "string",
    "htmlType": "text",
    "validations": "",
    "searchable": true,
    "inForm": true,
    "inIndex": true
  },
  {
    "name": "code",
    "dbType": "string",
    "htmlType": "text",
    "validations": "",
    "searchable": true,
    "inForm": true,
    "inIndex": true
  },
  {
    "name": "active",
    "dbType": "integer",
    "htmlType": "text",
    "validations": "",
    "searchable": true,
    "inForm": true,
    "inIndex": true
  },
  {
    "name": "who_edit",
    "dbType": "string",
    "htmlType": "text",
    "validations": "",
    "searchable": true,
    "inForm": true,
    "inIndex": true
  },
  {
    "name": "created_at",
    "dbType": "timestamp",
    "htmlType": "",
    "validations": "",
    "searchable": false,
    "fillable": false,
    "primary": true,
    "inForm": false,
    "inIndex": false
  },
  {
    "name": "updated_at",
    "dbType": "timestamp",
    "htmlType": "",
    "validations": "",
    "searchable": false,
    "fillable": false,
    "primary": true,
    "inForm": false,
    "inIndex": false
  }
]