[
  {
    "name": "id",
    "dbType": "increments",
    "htmlType": "",
    "validations": "",
    "searchable": false,
    "fillable": false,
    "primary": true,
    "inForm": false,
    "inIndex": false
  },
  {
    "name": "product_id",
    "dbType": "integer",
    "htmlType": "text",
    "validations": "",
    "searchable": true,
    "inForm": true,
    "inIndex": true
  },
  {
    "name": "text",
    "dbType": "string",
    "htmlType": "text",
    "validations": "",
    "searchable": true,
    "inForm": true,
    "inIndex": true
  },
  {
    "name": "who_edit",
    "dbType": "string",
    "htmlType": "text",
    "validations": "",
    "searchable": true,
    "inForm": true,
    "inIndex": true
  },
  {
    "name": "can_sign_up",
    "dbType": "integer",
    "htmlType": "text",
    "validations": "",
    "searchable": true,
    "inForm": true,
    "inIndex": true
  },
  {
    "name": "start_at",
    "dbType": "timestamp",
    "htmlType": "",
    "validations": "",
    "searchable": false,
    "fillable": false,
    "primary": true,
    "inForm": false,
    "inIndex": false
  },
  {
    "name": "created_at",
    "dbType": "timestamp",
    "htmlType": "",
    "validations": "",
    "searchable": false,
    "fillable": false,
    "primary": true,
    "inForm": false,
    "inIndex": false
  },
  {
    "name": "updated_at",
    "dbType": "timestamp",
    "htmlType": "",
    "validations": "",
    "searchable": false,
    "fillable": false,
    "primary": true,
    "inForm": false,
    "inIndex": false
  }
]