[
  {
    "name": "id",
    "dbType": "increments",
    "htmlType": "",
    "validations": "",
    "searchable": false,
    "fillable": false,
    "primary": true,
    "inForm": false,
    "inIndex": false
  },
  {
    "name": "url",
    "dbType": "string",
    "htmlType": "text",
    "validations": "",
    "searchable": true,
    "inForm": true,
    "inIndex": true
  },
  {
    "name": "title",
    "dbType": "text",
    "htmlType": "text",
    "validations": "",
    "searchable": true,
    "inForm": true,
    "inIndex": true
  },
  {
    "name": "description",
    "dbType": "text",
    "htmlType": "text",
    "validations": "",
    "searchable": true,
    "inForm": true,
    "inIndex": true
  },
  {
    "name": "owner",
    "dbType": "text",
    "htmlType": "text",
    "validations": "",
    "searchable": true,
    "inForm": true,
    "inIndex": true
  },
  {
  "name": "created_at",
  "dbType": "timestamp",
  "htmlType": "",
  "validations": "",
  "searchable": false,
  "fillable": false,
  "primary": true,
  "inForm": false,
  "inIndex": false
  },
  {
    "name": "updated_at",
    "dbType": "timestamp",
    "htmlType": "",
    "validations": "",
    "searchable": false,
    "fillable": false,
    "primary": true,
    "inForm": false,
    "inIndex": false
  }
]