[
  {
    "name": "id",
    "dbType": "increments",
    "htmlType": "",
    "validations": "",
    "searchable": false,
    "fillable": false,
    "primary": true,
    "inForm": false,
    "inIndex": false
  },
  {
    "name": "name",
    "dbType": "string",
    "htmlType": "text",
    "validations": "required",
    "searchable": true,
    "inForm": true,
    "inIndex": true
  },
  {
    "name": "email",
    "dbType": "string",
    "htmlType": "text",
    "validations": "",
    "searchable": true,
    "fillable": true,
    "inForm": true,
    "inIndex": true
  },
  {
    "name": "password",
    "dbType": "string",
    "htmlType": "text",
    "validations": "",
    "searchable": true,
    "fillable": true,
    "inForm": true,
    "inIndex": true
  },
  {
    "name": "role_id",
    "dbType": "integer",
    "htmlType": "text",
    "validations": "",
    "searchable": true,
    "fillable": true,
    "inForm": true,
    "inIndex": true
  },
  {
    "name": "balance",
    "dbType": "integer",
    "htmlType": "text",
    "validations": "",
    "searchable": true,
    "fillable": true,
    "inForm": true,
    "inIndex": true
  }
]